gene_id	gene_name
ENSG00000004848	ARX
ENSG00000047457	CP
ENSG00000079215	SLC1A3
ENSG00000100427	MLC1
ENSG00000101327	PDYN
ENSG00000102466	FGF14
ENSG00000103089	FA2H
ENSG00000104833	TUBB4A
ENSG00000105695	MAG
ENSG00000110195	FOLR1
ENSG00000111262	KCNA1
ENSG00000113721	PDGFRB
ENSG00000116675	DNAJC6
ENSG00000123560	PLP1
ENSG00000126583	PRKCG
ENSG00000130294	KIF1A
ENSG00000131095	GFAP
ENSG00000134343	ANO3
ENSG00000135917	SLC19A3
ENSG00000138823	MTTP
ENSG00000139190	VAMP1
ENSG00000141837	CACNA1A
ENSG00000144285	SCN1A
ENSG00000152208	GRID2
ENSG00000154118	JPH3
ENSG00000155980	KIF5A
ENSG00000156475	PPP2R2B
ENSG00000157103	SLC6A1
ENSG00000163536	SERPINI1
ENSG00000165478	HEPACAM
ENSG00000165970	SLC6A5
ENSG00000167371	PRRT2
ENSG00000171385	KCND3
ENSG00000173175	ADCY5
ENSG00000177807	KCNJ10
ENSG00000198513	ATL1
ENSG00000198695	MT-ND6
ENSG00000198835	GJC2
ENSG00000213619	NDUFS3
ENSG00000030582	GRN
ENSG00000049860	HEXB
ENSG00000054983	GALC
ENSG00000064601	CTSA
ENSG00000087086	FTL
ENSG00000090487	SPG21
ENSG00000100997	ABHD12
ENSG00000102805	CLN5
ENSG00000103707	MTFMT
ENSG00000104763	ASAH1
ENSG00000104774	MAN2B1
ENSG00000107537	PHYH
ENSG00000112357	PEX7
ENSG00000116096	SPR
ENSG00000119655	NPC2
ENSG00000119899	SLC17A5
ENSG00000120725	SIL1
ENSG00000128039	SRD5A3
ENSG00000133835	HSD17B4
ENSG00000135317	SNX14
ENSG00000135929	CYP27A1
ENSG00000136827	TOR1A
ENSG00000138760	SCARB2
ENSG00000141458	NPC1
ENSG00000142192	APP
ENSG00000145335	SNCA
ENSG00000152422	XRCC4
ENSG00000160213	CSTB
ENSG00000164182	NDUFAF2
ENSG00000164209	SLC25A46
ENSG00000164258	NDUFS4
ENSG00000166340	TPP1
ENSG00000169814	BTD
ENSG00000170266	GLB1
ENSG00000171867	PRNP
ENSG00000174080	CTSF
ENSG00000175198	PCCA
ENSG00000243335	KCTD7
ENSG00000046651	OFD1
ENSG00000047597	XK
ENSG00000066427	ATXN3
ENSG00000069329	VPS35
ENSG00000073578	SDHA
ENSG00000083123	BCKDHB
ENSG00000105409	ATP1A3
ENSG00000105607	GCDH
ENSG00000110435	PDHX
ENSG00000112294	ALDH5A1
ENSG00000117593	DARS2
ENSG00000130347	RTN4IP1
ENSG00000130414	NDUFA10
ENSG00000130826	DKC1
ENSG00000131269	ABCB7
ENSG00000131828	PDHA1
ENSG00000136143	SUCLA2
ENSG00000137411	VARS2
ENSG00000140521	POLG
ENSG00000147100	SLC16A2
ENSG00000147224	PRPS1
ENSG00000148090	AUH
ENSG00000158828	PINK1
ENSG00000162065	TBC1D24
ENSG00000165195	PIGA
ENSG00000165704	HPRT1
ENSG00000169057	MECP2
ENSG00000177189	RPS6KA3
ENSG00000185345	PARK2
ENSG00000185963	BICD2
ENSG00000196998	WDR45
ENSG00000198130	HIBCH
ENSG00000198910	L1CAM
ENSG00000204435	CSNK2B
ENSG00000210156	MT-TK
ENSG00000213614	HEXA
ENSG00000006695	COX10
ENSG00000011295	TTC19
ENSG00000014919	COX15
ENSG00000072210	ALDH3A2
ENSG00000072756	TRNT1
ENSG00000076685	NT5C2
ENSG00000095485	CWF19L1
ENSG00000101361	NOP56
ENSG00000102743	SLC25A15
ENSG00000107371	EXOSC3
ENSG00000107566	ERLIN1
ENSG00000107815	C10orf2
ENSG00000108433	GOSR2
ENSG00000111249	CUX2
ENSG00000119977	TCTN3
ENSG00000124587	PEX6
ENSG00000126953	TIMM8A
ENSG00000131943	C19orf12
ENSG00000137074	APTX
ENSG00000140650	PMM2
ENSG00000141378	PTRH2
ENSG00000148606	POLR3A
ENSG00000155256	ZFYVE27
ENSG00000163050	ADCK3
ENSG00000165060	FXN
ENSG00000170113	NIPA1
ENSG00000171453	POLR1C
ENSG00000178445	GLDC
ENSG00000180644	PRF1
ENSG00000198805	PNP
ENSG00000204386	NEU1
ENSG00000204852	TCTN1
ENSG00000205336	ADGRG1
ENSG00000261609	GAN
ENSG00000003393	ALS2
ENSG00000072121	ZFYVE26
ENSG00000079482	OPHN1
ENSG00000080815	PSEN1
ENSG00000087299	L2HGDH
ENSG00000100523	DDHD1
ENSG00000119718	EIF2B2
ENSG00000125741	OPA3
ENSG00000125779	PANK2
ENSG00000129250	KIF1C
ENSG00000130816	DNMT1
ENSG00000131979	GCH1
ENSG00000132437	DDC
ENSG00000139531	SUOX
ENSG00000145016	RUBCN
ENSG00000145982	FARS2
ENSG00000159082	SYNJ1
ENSG00000163635	ATXN7
ENSG00000164961	KIAA0196
ENSG00000167716	WDR81
ENSG00000173575	CHD2
ENSG00000175595	ERCC4
ENSG00000177628	GBA
ENSG00000188603	CLN3
ENSG00000196663	TECPR2
ENSG00000197283	SYNGAP1
ENSG00000197386	HTT
ENSG00000036473	OTC
ENSG00000048392	RRM2B
ENSG00000067836	ROGDI
ENSG00000081014	AP4E1
ENSG00000091140	DLD
ENSG00000100749	VRK1
ENSG00000114054	PCCB
ENSG00000114062	UBE3A
ENSG00000114859	CLCN2
ENSG00000135454	B4GALNT1
ENSG00000136352	NKX2-1
ENSG00000138095	LRPPRC
ENSG00000141385	AFG3L2
ENSG00000141404	GNAL
ENSG00000142319	SLC6A3
ENSG00000143324	XPR1
ENSG00000145191	EIF2B5
ENSG00000150995	ITPR1
ENSG00000158290	CUL4B
ENSG00000163961	RNF168
ENSG00000168538	TRAPPC11
ENSG00000172817	CYP7B1
ENSG00000173898	SPTBN2
ENSG00000196660	SLC30A10
ENSG00000198836	OPA1
ENSG00000203667	COX20
ENSG00000221838	AP4M1
ENSG00000013503	POLR3B
ENSG00000039650	PNKP
ENSG00000070610	GBA2
ENSG00000070785	EIF2B3
ENSG00000074582	BCS1L
ENSG00000077044	DGKD
ENSG00000094914	AAAS
ENSG00000109501	WFS1
ENSG00000110717	NDUFS8
ENSG00000115204	MPV17
ENSG00000115211	EIF2B4
ENSG00000115827	DCAF17
ENSG00000124788	ATXN1
ENSG00000125459	MSTO1
ENSG00000127838	PNKD
ENSG00000134262	AP4B1
ENSG00000134905	CARS2
ENSG00000144381	HSPD1
ENSG00000151552	QDPR
ENSG00000178971	CTC1
ENSG00000180228	PRKRA
ENSG00000184381	PLA2G6
ENSG00000187566	NHLRC1
ENSG00000204842	ATXN2
ENSG00000205084	TMEM231
ENSG00000011275	RNF216
ENSG00000020922	MRE11A
ENSG00000075239	ACAT1
ENSG00000104133	SPG11
ENSG00000107290	SETX
ENSG00000110074	FOXRED1
ENSG00000123191	ATP7B
ENSG00000128881	TTBK2
ENSG00000131018	SYNE1
ENSG00000132763	MMACHC
ENSG00000143669	LYST
ENSG00000145020	AMT
ENSG00000145888	GLRA1
ENSG00000147133	TAF1
ENSG00000149311	ATM
ENSG00000150787	PTS
ENSG00000151835	SACS
ENSG00000178538	CA8
ENSG00000180176	TH
ENSG00000187049	TMEM216
ENSG00000188906	LRRK2
ENSG00000189056	RELN
ENSG00000197603	C5orf42
ENSG00000197969	VPS13A
ENSG00000205981	DNAJC19
ENSG00000011143	MKS1
ENSG00000048342	CC2D2A
ENSG00000100225	FBXO7
ENSG00000100311	PDGFB
ENSG00000103494	RPGRIP1L
ENSG00000105227	PRX
ENSG00000111361	EIF2B1
ENSG00000111676	ATN1
ENSG00000112592	TBP
ENSG00000125744	RTN2
ENSG00000127990	SGCE
ENSG00000130921	C12orf65
ENSG00000133104	SPG20
ENSG00000135541	AHI1
ENSG00000137561	TTPA
ENSG00000144061	NPHP1
ENSG00000151413	NUBPL
ENSG00000164953	TMEM67
ENSG00000166546	BEAN1
ENSG00000168000	BSCL2
ENSG00000168778	TCTN2
ENSG00000169379	ARL13B
ENSG00000177082	WDR73
ENSG00000198707	CEP290
ENSG00000230223	ATXN8OS
ENSG00000012660	ELOVL5
ENSG00000014216	CAPN1
ENSG00000032444	PNPLA6
ENSG00000060069	CTDP1
ENSG00000068615	REEP1
ENSG00000101152	DNAJC5
ENSG00000101986	ABCD1
ENSG00000103266	STUB1
ENSG00000110921	MVK
ENSG00000112425	EPM2A
ENSG00000113643	RARS
ENSG00000115286	NDUFS7
ENSG00000116288	PARK7
ENSG00000124608	AARS2
ENSG00000128973	CLN6
ENSG00000130638	ATXN10
ENSG00000147894	C9orf72
ENSG00000154277	UCHL1
ENSG00000156170	NDUFAF6
ENSG00000157911	PEX10
ENSG00000159363	ATP13A2
ENSG00000165688	PMPCA
ENSG00000185803	SLC52A2
ENSG00000197785	ATAD3A
ENSG00000197912	SPG7
ENSG00000021574	SPAST
ENSG00000085788	DDHD2
ENSG00000088035	ALG6
ENSG00000109738	GLRB
ENSG00000117394	SLC2A1
ENSG00000131931	THAP1
ENSG00000146085	MUT
ENSG00000147475	ERLIN2
ENSG00000147852	VLDLR
ENSG00000148290	SURF1
ENSG00000160746	ANO10
ENSG00000164073	MFSD8
ENSG00000164751	PEX2
ENSG00000166948	TGM6
ENSG00000168575	SLC20A2
ENSG00000169359	SLC33A1
ENSG00000174358	SLC6A19
ENSG00000182372	CLN8
ENSG00000200463	SNORD118
ENSG00000205090	TMEM240
