gene_id	gene_name
ENSG00000064601	CTSA
ENSG00000080815	PSEN1
ENSG00000101152	DNAJC5
ENSG00000104763	ASAH1
ENSG00000105711	SCN1B
ENSG00000109738	GLRB
ENSG00000110195	FOLR1
ENSG00000127990	SGCE
ENSG00000128973	CLN6
ENSG00000138760	SCARB2
ENSG00000141458	NPC1
ENSG00000142192	APP
ENSG00000149311	ATM
ENSG00000160213	CSTB
ENSG00000162065	TBC1D24
ENSG00000166340	TPP1
ENSG00000171867	PRNP
ENSG00000173175	ADCY5
ENSG00000177189	RPS6KA3
ENSG00000177628	GBA
ENSG00000178445	GLDC
ENSG00000188603	CLN3
ENSG00000197283	SYNGAP1
ENSG00000204435	CSNK2B
ENSG00000243335	KCTD7
ENSG00000022355	GABRA1
ENSG00000108433	GOSR2
ENSG00000109756	RAPGEF2
ENSG00000111249	CUX2
ENSG00000112425	EPM2A
ENSG00000114062	UBE3A
ENSG00000117394	SLC2A1
ENSG00000126583	PRKCG
ENSG00000129159	KCNC1
ENSG00000134343	ANO3
ENSG00000139174	PRICKLE1
ENSG00000140521	POLG
ENSG00000144285	SCN1A
ENSG00000155980	KIF5A
ENSG00000157103	SLC6A1
ENSG00000163536	SERPINI1
ENSG00000165194	PCDH19
ENSG00000165195	PIGA
ENSG00000165970	SLC6A5
ENSG00000177570	SAMD12
ENSG00000187566	NHLRC1
ENSG00000204386	NEU1
ENSG00000100379	KCTD17
ENSG00000102805	CLN5
ENSG00000111676	ATN1
ENSG00000134905	CARS2
ENSG00000136352	NKX2-1
ENSG00000145020	AMT
ENSG00000145888	GLRA1
ENSG00000145982	FARS2
ENSG00000151835	SACS
ENSG00000173575	CHD2
ENSG00000182372	CLN8
ENSG00000197386	HTT
ENSG00000209082	MT-TL1
ENSG00000210049	MT-TF
ENSG00000210117	MT-TW
ENSG00000210151	MT-TS1
ENSG00000210156	MT-TK
ENSG00000210176	MT-TH
ENSG00000210184	MT-TS2
