"","Gene_id","Gene_name","Cluster"
"1","ENSG00000047457","CP",1
"2","ENSG00000104833","TUBB4A",1
"3","ENSG00000105409","ATP1A3",1
"4","ENSG00000116096","SPR",1
"5","ENSG00000117394","SLC2A1",1
"6","ENSG00000126583","PRKCG",1
"7","ENSG00000129159","KCNC1",1
"8","ENSG00000155980","KIF5A",1
"9","ENSG00000173175","ADCY5",1
"10","ENSG00000177570","SAMD12",1
"11","ENSG00000109738","GLRB",1
"12","ENSG00000129250","KIF1C",1
"13","ENSG00000157103","SLC6A1",1
"14","ENSG00000163536","SERPINI1",1
"15","ENSG00000105711","SCN1B",1
"16","ENSG00000127990","SGCE",1
"17","ENSG00000135917","SLC19A3",1
"18","ENSG00000066427","ATXN3",2
"19","ENSG00000078369","GNB1",2
"20","ENSG00000108433","GOSR2",2
"21","ENSG00000111249","CUX2",2
"22","ENSG00000111676","ATN1",2
"23","ENSG00000114062","UBE3A",2
"24","ENSG00000115827","DCAF17",2
"25","ENSG00000131979","GCH1",2
"26","ENSG00000134343","ANO3",2
"27","ENSG00000140521","POLG",2
"28","ENSG00000144285","SCN1A",2
"29","ENSG00000145888","GLRA1",2
"30","ENSG00000165194","PCDH19",2
"31","ENSG00000165704","HPRT1",2
"32","ENSG00000165970","SLC6A5",2
"33","ENSG00000131943","C19orf12",2
"34","ENSG00000139174","PRICKLE1",2
"35","ENSG00000142319","SLC6A3",2
"36","ENSG00000147133","TAF1",2
"37","ENSG00000149311","ATM",2
"38","ENSG00000151835","SACS",2
"39","ENSG00000165195","PIGA",2
"40","ENSG00000171867","PRNP",2
"41","ENSG00000178445","GLDC",2
"42","ENSG00000204435","CSNK2B",2
"43","ENSG00000109756","RAPGEF2",2
"44","ENSG00000125779","PANK2",2
"45","ENSG00000126953","TIMM8A",2
"46","ENSG00000136352","NKX2-1",2
"47","ENSG00000141404","GNAL",2
"48","ENSG00000160710","ADAR",2
"49","ENSG00000176165","FOXG1",2
"50","ENSG00000180228","PRKRA",2
"51","ENSG00000196998","WDR45",2
"52","ENSG00000210151","MT-TS1",2
"53","ENSG00000101152","DNAJC5",2
"54","ENSG00000110195","FOLR1",2
"55","ENSG00000136827","TOR1A",2
"56","ENSG00000177189","RPS6KA3",2
"57","ENSG00000187566","NHLRC1",2
"58","ENSG00000197283","SYNGAP1",2
"59","ENSG00000243335","KCTD7",2
"60","ENSG00000272333","KMT2B",2
"61","ENSG00000100379","KCTD17",3
"62","ENSG00000131931","THAP1",3
"63","ENSG00000173575","CHD2",3
"64","ENSG00000184381","PLA2G6",3
"65","ENSG00000197386","HTT",3
"66","ENSG00000198695","MT-ND6",3
"67","ENSG00000209082","MT-TL1",3
"68","ENSG00000210049","MT-TF",3
"69","ENSG00000210117","MT-TW",3
"70","ENSG00000210156","MT-TK",3
"71","ENSG00000210176","MT-TH",3
"72","ENSG00000210184","MT-TS2",3
"73","ENSG00000103089","FA2H",4
"74","ENSG00000132437","DDC",4
"75","ENSG00000180176","TH",4
"76","ENSG00000075239","ACAT1",4
"77","ENSG00000105607","GCDH",4
"78","ENSG00000112425","EPM2A",4
"79","ENSG00000114054","PCCB",4
"80","ENSG00000123191","ATP7B",4
"81","ENSG00000134905","CARS2",4
"82","ENSG00000136143","SUCLA2",4
"83","ENSG00000145982","FARS2",4
"84","ENSG00000146085","MUT",4
"85","ENSG00000150787","PTS",4
"86","ENSG00000151552","QDPR",4
"87","ENSG00000162065","TBC1D24",4
"88","ENSG00000175198","PCCA",4
"89","ENSG00000196660","SLC30A10",4
"90","ENSG00000102805","CLN5",4
"91","ENSG00000145020","AMT",4
"92","ENSG00000182372","CLN8",4
"93","ENSG00000204386","NEU1",5
"94","ENSG00000138760","SCARB2",5
"95","ENSG00000064601","CTSA",5
"96","ENSG00000080815","PSEN1",5
"97","ENSG00000087086","FTL",5
"98","ENSG00000104763","ASAH1",5
"99","ENSG00000128973","CLN6",5
"100","ENSG00000141458","NPC1",5
"101","ENSG00000142192","APP",5
"102","ENSG00000160213","CSTB",5
"103","ENSG00000166340","TPP1",5
"104","ENSG00000170266","GLB1",5
"105","ENSG00000177628","GBA",5
"106","ENSG00000188603","CLN3",5
