"","Gene_id","Gene_name","Cluster"
"1","ENSG00000020922","MRE11A",1
"2","ENSG00000165060","FXN",1
"3","ENSG00000239900","ADSL",1
"4","ENSG00000030582","GRN",1
"5","ENSG00000064601","CTSA",1
"6","ENSG00000080815","PSEN1",1
"7","ENSG00000088035","ALG6",1
"8","ENSG00000100997","ABHD12",1
"9","ENSG00000102081","FMR1",1
"10","ENSG00000124155","PIGT",1
"11","ENSG00000128973","CLN6",1
"12","ENSG00000131238","PPT1",1
"13","ENSG00000135929","CYP27A1",1
"14","ENSG00000137561","TTPA",1
"15","ENSG00000141458","NPC1",1
"16","ENSG00000156709","AIFM1",1
"17","ENSG00000160213","CSTB",1
"18","ENSG00000163050","ADCK3",1
"19","ENSG00000166340","TPP1",1
"20","ENSG00000174080","CTSF",1
"21","ENSG00000177628","GBA",1
"22","ENSG00000204370","SDHD",1
"23","ENSG00000213614","HEXA",1
"24","ENSG00000116353","MECR",1
"25","ENSG00000141385","AFG3L2",1
"26","ENSG00000163933","RFT1",1
"27","ENSG00000213380","COG8",1
"28","ENSG00000223802","CERS1",1
"29","ENSG00000242802","AP5Z1",1
"30","ENSG00000112425","EPM2A",1
"31","ENSG00000112592","TBP",1
"32","ENSG00000123191","ATP7B",1
"33","ENSG00000127990","SGCE",1
"34","ENSG00000138760","SCARB2",1
"35","ENSG00000140521","POLG",1
"36","ENSG00000145191","EIF2B5",1
"37","ENSG00000164073","MFSD8",1
"38","ENSG00000204386","NEU1",1
"39","ENSG00000066427","ATXN3",1
"40","ENSG00000087299","L2HGDH",1
"41","ENSG00000101361","NOP56",1
"42","ENSG00000163170","BOLA3",1
"43","ENSG00000050030","KIAA2022",2
"44","ENSG00000114062","UBE3A",2
"45","ENSG00000131398","KCNC3",2
"46","ENSG00000136352","NKX2-1",2
"47","ENSG00000163536","SERPINI1",2
"48","ENSG00000164209","SLC25A46",2
"49","ENSG00000170027","YWHAG",2
"50","ENSG00000196876","SCN8A",2
"51","ENSG00000243335","KCTD7",2
"52","ENSG00000103266","STUB1",2
"53","ENSG00000105711","SCN1B",2
"54","ENSG00000108001","EBF3",2
"55","ENSG00000110195","FOLR1",2
"56","ENSG00000117394","SLC2A1",2
"57","ENSG00000130005","GAMT",2
"58","ENSG00000162065","TBC1D24",2
"59","ENSG00000168000","BSCL2",2
"60","ENSG00000171867","PRNP",2
"61","ENSG00000204842","ATXN2",2
"62","ENSG00000008086","CDKL5",2
"63","ENSG00000047457","CP",2
"64","ENSG00000048707","VPS13D",2
"65","ENSG00000101152","DNAJC5",2
"66","ENSG00000107290","SETX",2
"67","ENSG00000119669","IRF2BPL",2
"68","ENSG00000141367","CLTC",2
"69","ENSG00000149311","ATM",2
"70","ENSG00000150995","ITPR1",2
"71","ENSG00000151835","SACS",2
"72","ENSG00000159363","ATP13A2",2
"73","ENSG00000163635","ATXN7",2
"74","ENSG00000169057","MECP2",2
"75","ENSG00000171735","CAMTA1",2
"76","ENSG00000173575","CHD2",2
"77","ENSG00000177000","MTHFR",2
"78","ENSG00000177409","SAMD9L",2
"79","ENSG00000182372","CLN8",2
"80","ENSG00000187566","NHLRC1",2
"81","ENSG00000197283","SYNGAP1",2
"82","ENSG00000013375","PGM3",2
"83","ENSG00000085382","HACE1",2
"84","ENSG00000108433","GOSR2",2
"85","ENSG00000117682","DHDDS",2
"86","ENSG00000124788","ATXN1",2
"87","ENSG00000139174","PRICKLE1",2
"88","ENSG00000140939","NOL3",2
"89","ENSG00000153989","NUS1",2
"90","ENSG00000160200","CBS",2
"91","ENSG00000173898","SPTBN2",2
"92","ENSG00000176619","LMNB2",2
"93","ENSG00000210176","MT-TH",2
"94","ENSG00000100146","SOX10",2
"95","ENSG00000111676","ATN1",2
"96","ENSG00000164182","NDUFAF2",2
"97","ENSG00000198695","MT-ND6",2
"98","ENSG00000198804","MT-CO1",2
"99","ENSG00000209082","MT-TL1",2
"100","ENSG00000210151","MT-TS1",2
"101","ENSG00000210156","MT-TK",2
"102","ENSG00000230223","ATXN8OS",2
"103","ENSG00000066032","CTNNA2",3
"104","ENSG00000075043","KCNQ2",3
"105","ENSG00000077279","DCX",3
"106","ENSG00000099365","STX1B",3
"107","ENSG00000105409","ATP1A3",3
"108","ENSG00000126583","PRKCG",3
"109","ENSG00000129159","KCNC1",3
"110","ENSG00000131095","GFAP",3
"111","ENSG00000132639","SNAP25",3
"112","ENSG00000136531","SCN2A",3
"113","ENSG00000141837","CACNA1A",3
"114","ENSG00000144285","SCN1A",3
"115","ENSG00000152784","PRDM8",3
"116","ENSG00000157103","SLC6A1",3
"117","ENSG00000164588","HCN1",3
"118","ENSG00000165194","PCDH19",3
"119","ENSG00000167371","PRRT2",3
"120","ENSG00000171385","KCND3",3
"121","ENSG00000177301","KCNA2",3
"122","ENSG00000182389","CACNB4",3
"123","ENSG00000205090","TMEM240",3
