"","Gene_id","Gene_name","Cluster"
"1","ENSG00000012660","ELOVL5",1
"2","ENSG00000068615","REEP1",1
"3","ENSG00000087086","FTL",1
"4","ENSG00000118402","ELOVL4",1
"5","ENSG00000128881","TTBK2",1
"6","ENSG00000134343","ANO3",1
"7","ENSG00000135917","SLC19A3",1
"8","ENSG00000139190","VAMP1",1
"9","ENSG00000141404","GNAL",1
"10","ENSG00000166546","BEAN1",1
"11","ENSG00000204842","ATXN2",1
"12","ENSG00000127990","SGCE",1
"13","ENSG00000006283","CACNA1G",1
"14","ENSG00000047457","CP",1
"15","ENSG00000101327","PDYN",1
"16","ENSG00000102466","FGF14",1
"17","ENSG00000104833","TUBB4A",1
"18","ENSG00000105409","ATP1A3",1
"19","ENSG00000126583","PRKCG",1
"20","ENSG00000130816","DNMT1",1
"21","ENSG00000131095","GFAP",1
"22","ENSG00000141837","CACNA1A",1
"23","ENSG00000156475","PPP2R2B",1
"24","ENSG00000171385","KCND3",1
"25","ENSG00000173175","ADCY5",1
"26","ENSG00000078369","GNB1",2
"27","ENSG00000105607","GCDH",2
"28","ENSG00000126953","TIMM8A",2
"29","ENSG00000130638","ATXN10",2
"30","ENSG00000131979","GCH1",2
"31","ENSG00000151552","QDPR",2
"32","ENSG00000160710","ADAR",2
"33","ENSG00000165704","HPRT1",2
"34","ENSG00000180228","PRKRA",2
"35","ENSG00000075239","ACAT1",2
"36","ENSG00000114054","PCCB",2
"37","ENSG00000136827","TOR1A",2
"38","ENSG00000146085","MUT",2
"39","ENSG00000150787","PTS",2
"40","ENSG00000176165","FOXG1",2
"41","ENSG00000196660","SLC30A10",2
"42","ENSG00000196998","WDR45",2
"43","ENSG00000115827","DCAF17",3
"44","ENSG00000101361","NOP56",3
"45","ENSG00000125779","PANK2",3
"46","ENSG00000147133","TAF1",3
"47","ENSG00000205090","TMEM240",3
"48","ENSG00000272333","KMT2B",3
"49","ENSG00000111676","ATN1",3
"50","ENSG00000124788","ATXN1",3
"51","ENSG00000163635","ATXN7",3
"52","ENSG00000166948","TGM6",3
"53","ENSG00000116096","SPR",4
"54","ENSG00000132437","DDC",4
"55","ENSG00000170266","GLB1",4
"56","ENSG00000180176","TH",4
"57","ENSG00000184381","PLA2G6",4
"58","ENSG00000066427","ATXN3",4
"59","ENSG00000123191","ATP7B",4
"60","ENSG00000129250","KIF1C",4
"61","ENSG00000131931","THAP1",4
"62","ENSG00000131943","C19orf12",4
"63","ENSG00000136143","SUCLA2",4
"64","ENSG00000141385","AFG3L2",4
"65","ENSG00000142319","SLC6A3",4
"66","ENSG00000173898","SPTBN2",4
"67","ENSG00000175198","PCCA",4
"68","ENSG00000198695","MT-ND6",4
"69","ENSG00000230223","ATXN8OS",4
"70","ENSG00000103089","FA2H",4
